%YAML 1.1
%TAG !u! tag:unity3d.com,2011:
--- !u!29 &1
OcclusionCullingSettings:
  m_ObjectHideFlags: 0
  serializedVersion: 2
  m_OcclusionBakeSettings:
    smallestOccluder: 5
    smallestHole: 0.25
    backfaceThreshold: 100
  m_SceneGUID: 00000000000000000000000000000000
  m_OcclusionCullingData: {fileID: 0}
--- !u!104 &2
RenderSettings:
  m_ObjectHideFlags: 0
  serializedVersion: 9
  m_Fog: 1
  m_FogColor: {r: 0.4862745, g: 0.69411767, b: 0.8117647, a: 1}
  m_FogMode: 3
  m_FogDensity: 0.025
  m_LinearFogStart: 0
  m_LinearFogEnd: 300
  m_AmbientSkyColor: {r: 0.9386859, g: 0.90466136, b: 0.84687346, a: 1}
  m_AmbientEquatorColor: {r: 0.114, g: 0.125, b: 0.133, a: 1}
  m_AmbientGroundColor: {r: 0.047, g: 0.043, b: 0.035, a: 1}
  m_AmbientIntensity: 1
  m_AmbientMode: 0
  m_SubtractiveShadowColor: {r: 0.42, g: 0.478, b: 0.627, a: 1}
  m_SkyboxMaterial: {fileID: 2100000, guid: aeab33f69c199e54794f516d31450ec4, type: 2}
  m_HaloStrength: 0.5
  m_FlareStrength: 1
  m_FlareFadeSpeed: 3
  m_HaloTexture: {fileID: 0}
  m_SpotCookie: {fileID: 10001, guid: 0000000000000000e000000000000000, type: 0}
  m_DefaultReflectionMode: 1
  m_DefaultReflectionResolution: 128
  m_ReflectionBounces: 5
  m_ReflectionIntensity: 1
  m_CustomReflection: {fileID: 8900000, guid: 619e305f5165a9946b7f72464e44ca4a, type: 3}
  m_Sun: {fileID: 2114283754330233425}
  m_IndirectSpecularColor: {r: 0.1727952, g: 0.2600245, b: 0.36693013, a: 1}
  m_UseRadianceAmbientProbe: 0
--- !u!157 &3
LightmapSettings:
  m_ObjectHideFlags: 0
  serializedVersion: 12
  m_GIWorkflowMode: 1
  m_GISettings:
    serializedVersion: 2
    m_BounceScale: 1
    m_IndirectOutputScale: 1
    m_AlbedoBoost: 1
    m_EnvironmentLightingMode: 0
    m_EnableBakedLightmaps: 1
    m_EnableRealtimeLightmaps: 0
  m_LightmapEditorSettings:
    serializedVersion: 12
    m_Resolution: 2
    m_BakeResolution: 80
    m_AtlasSize: 1024
    m_AO: 1
    m_AOMaxDistance: 1
    m_CompAOExponent: 0.4
    m_CompAOExponentDirect: 0.4
    m_ExtractAmbientOcclusion: 0
    m_Padding: 2
    m_LightmapParameters: {fileID: 15204, guid: 0000000000000000f000000000000000,
      type: 0}
    m_LightmapsBakeMode: 1
    m_TextureCompression: 1
    m_FinalGather: 0
    m_FinalGatherFiltering: 1
    m_FinalGatherRayCount: 256
    m_ReflectionCompression: 2
    m_MixedBakeMode: 2
    m_BakeBackend: 1
    m_PVRSampling: 1
    m_PVRDirectSampleCount: 400
    m_PVRSampleCount: 400
    m_PVRBounces: 4
    m_PVREnvironmentSampleCount: 500
    m_PVREnvironmentReferencePointCount: 2048
    m_PVRFilteringMode: 1
    m_PVRDenoiserTypeDirect: 1
    m_PVRDenoiserTypeIndirect: 1
    m_PVRDenoiserTypeAO: 1
    m_PVRFilterTypeDirect: 0
    m_PVRFilterTypeIndirect: 0
    m_PVRFilterTypeAO: 0
    m_PVREnvironmentMIS: 1
    m_PVRCulling: 0
    m_PVRFilteringGaussRadiusDirect: 1
    m_PVRFilteringGaussRadiusIndirect: 5
    m_PVRFilteringGaussRadiusAO: 2
    m_PVRFilteringAtrousPositionSigmaDirect: 0.5
    m_PVRFilteringAtrousPositionSigmaIndirect: 2
    m_PVRFilteringAtrousPositionSigmaAO: 1
    m_ExportTrainingData: 0
    m_TrainingDataDestination: TrainingData
    m_LightProbeSampleCountMultiplier: 4
  m_LightingDataAsset: {fileID: 112000000, guid: 51e8050f26ab504469d218c927558c5e,
    type: 2}
  m_LightingSettings: {fileID: 4890085278179872738, guid: 3b3f7400d3526e9429c39d03afb714b3,
    type: 2}
--- !u!196 &4
NavMeshSettings:
  serializedVersion: 2
  m_ObjectHideFlags: 0
  m_BuildSettings:
    serializedVersion: 2
    agentTypeID: 0
    agentRadius: 0.5
    agentHeight: 2
    agentSlope: 45
    agentClimb: 0.4
    ledgeDropHeight: 0
    maxJumpAcrossDistance: 0
    minRegionArea: 2
    manualCellSize: 0
    cellSize: 0.16666667
    manualTileSize: 0
    tileSize: 256
    accuratePlacement: 0
    maxJobWorkers: 0
    preserveTilesOutsideBounds: 0
    debug:
      m_Flags: 0
  m_NavMeshData: {fileID: 0}
--- !u!1 &360139032
GameObject:
  m_ObjectHideFlags: 0
  m_CorrespondingSourceObject: {fileID: 0}
  m_PrefabInstance: {fileID: 0}
  m_PrefabAsset: {fileID: 0}
  serializedVersion: 6
  m_Component:
  - component: {fileID: 360139035}
  - component: {fileID: 360139034}
  - component: {fileID: 360139033}
  m_Layer: 0
  m_Name: Player
  m_TagString: Untagged
  m_Icon: {fileID: 0}
  m_NavMeshLayer: 0
  m_StaticEditorFlags: 0
  m_IsActive: 0
--- !u!143 &360139033
CharacterController:
  m_ObjectHideFlags: 0
  m_CorrespondingSourceObject: {fileID: 0}
  m_PrefabInstance: {fileID: 0}
  m_PrefabAsset: {fileID: 0}
  m_GameObject: {fileID: 360139032}
  m_Material: {fileID: 0}
  m_IsTrigger: 0
  m_Enabled: 1
  serializedVersion: 2
  m_Height: 2
  m_Radius: 0.5
  m_SlopeLimit: 45
  m_StepOffset: 0.3
  m_SkinWidth: 0.08
  m_MinMoveDistance: 0.001
  m_Center: {x: 0, y: 0, z: 0}
--- !u!114 &360139034
MonoBehaviour:
  m_ObjectHideFlags: 0
  m_CorrespondingSourceObject: {fileID: 0}
  m_PrefabInstance: {fileID: 0}
  m_PrefabAsset: {fileID: 0}
  m_GameObject: {fileID: 360139032}
  m_Enabled: 1
  m_EditorHideFlags: 0
  m_Script: {fileID: 11500000, guid: 8bf8ab650b4a50e448553427bc4ce287, type: 3}
  m_Name: 
  m_EditorClassIdentifier: 
  moveSpeed: 2
  sprintSpeed: 5.335
  rotationSmoothTime: 0.12
  speedChangeRate: 10
  jumpHeight: 1.2
  gravity: -15
  jumpTimeout: 0.5
  fallTimeout: 0.15
  groundedOffset: -0.14
  groundedRadius: 0.28
  groundLayers:
    serializedVersion: 2
    m_Bits: 0
  grounded: 1
  cinemachineCameraTarget: {fileID: 1221041500}
  topClamp: 70
  bottomClamp: -30
  cameraAngleOverride: 0
  lockCameraPosition: 0
--- !u!4 &360139035
Transform:
  m_ObjectHideFlags: 0
  m_CorrespondingSourceObject: {fileID: 0}
  m_PrefabInstance: {fileID: 0}
  m_PrefabAsset: {fileID: 0}
  m_GameObject: {fileID: 360139032}
  m_LocalRotation: {x: 0, y: 0, z: 0, w: 1}
  m_LocalPosition: {x: 0, y: 0, z: 20}
  m_LocalScale: {x: 1, y: 1, z: 1}
  m_Children: []
  m_Father: {fileID: 0}
  m_RootOrder: 7
  m_LocalEulerAnglesHint: {x: 0, y: 0, z: 0}
--- !u!1 &542508511
GameObject:
  m_ObjectHideFlags: 0
  m_CorrespondingSourceObject: {fileID: 0}
  m_PrefabInstance: {fileID: 0}
  m_PrefabAsset: {fileID: 0}
  serializedVersion: 6
  m_Component:
  - component: {fileID: 542508512}
  - component: {fileID: 542508513}
  m_Layer: 0
  m_Name: Reflection Probe (1)
  m_TagString: Untagged
  m_Icon: {fileID: 0}
  m_NavMeshLayer: 0
  m_StaticEditorFlags: 0
  m_IsActive: 1
--- !u!4 &542508512
Transform:
  m_ObjectHideFlags: 0
  m_CorrespondingSourceObject: {fileID: 0}
  m_PrefabInstance: {fileID: 0}
  m_PrefabAsset: {fileID: 0}
  m_GameObject: {fileID: 542508511}
  m_LocalRotation: {x: -0, y: -0, z: -0, w: 1}
  m_LocalPosition: {x: 6.486, y: 1.566, z: 11.068}
  m_LocalScale: {x: 1, y: 1, z: 1}
  m_Children: []
  m_Father: {fileID: 2114283753834967213}
  m_RootOrder: 3
  m_LocalEulerAnglesHint: {x: 0, y: 0, z: 0}
--- !u!215 &542508513
ReflectionProbe:
  m_ObjectHideFlags: 0
  m_CorrespondingSourceObject: {fileID: 0}
  m_PrefabInstance: {fileID: 0}
  m_PrefabAsset: {fileID: 0}
  m_GameObject: {fileID: 542508511}
  m_Enabled: 1
  serializedVersion: 2
  m_Type: 0
  m_Mode: 0
  m_RefreshMode: 0
  m_TimeSlicingMode: 0
  m_Resolution: 128
  m_UpdateFrequency: 0
  m_BoxSize: {x: 6.791793, y: 3.0818176, z: 6.757762}
  m_BoxOffset: {x: 0.3952031, y: -0.096860886, z: -0.21973467}
  m_NearClip: 0.3
  m_FarClip: 1000
  m_ShadowDistance: 100
  m_ClearFlags: 1
  m_BackGroundColor: {r: 0.19215687, g: 0.3019608, b: 0.4745098, a: 0}
  m_CullingMask:
    serializedVersion: 2
    m_Bits: 4294967295
  m_IntensityMultiplier: 1
  m_BlendDistance: 1
  m_HDR: 1
  m_BoxProjection: 0
  m_RenderDynamicObjects: 0
  m_UseOcclusionCulling: 1
  m_Importance: 1
  m_CustomBakedTexture: {fileID: 0}
--- !u!1 &686902503
GameObject:
  m_ObjectHideFlags: 0
  m_CorrespondingSourceObject: {fileID: 0}
  m_PrefabInstance: {fileID: 0}
  m_PrefabAsset: {fileID: 0}
  serializedVersion: 6
  m_Component:
  - component: {fileID: 686902505}
  - component: {fileID: 686902504}
  m_Layer: 0
  m_Name: Rewired Input Manager
  m_TagString: Untagged
  m_Icon: {fileID: 0}
  m_NavMeshLayer: 0
  m_StaticEditorFlags: 0
  m_IsActive: 1
--- !u!114 &686902504
MonoBehaviour:
  m_ObjectHideFlags: 0
  m_CorrespondingSourceObject: {fileID: 0}
  m_PrefabInstance: {fileID: 0}
  m_PrefabAsset: {fileID: 0}
  m_GameObject: {fileID: 686902503}
  m_Enabled: 1
  m_EditorHideFlags: 0
  m_Script: {fileID: 11500000, guid: 581b3e3c96df0ef42aef16b63b27b87f, type: 3}
  m_Name: 
  m_EditorClassIdentifier: 
  _dontDestroyOnLoad: 1
  _userData:
    configVars:
      updateLoop: 1
      alwaysUseUnityInput: 0
      windowsStandalonePrimaryInputSource: 0
      osx_primaryInputSource: 0
      linux_primaryInputSource: 0
      windowsUWP_primaryInputSource: 0
      xboxOne_primaryInputSource: 0
      gameCoreXboxOne_primaryInputSource: 0
      gameCoreScarlett_primaryInputSource: 0
      ps4_primaryInputSource: 0
      ps5_primaryInputSource: 0
      webGL_primaryInputSource: 0
      stadia_primaryInputSource: 0
      useXInput: 1
      useNativeMouse: 1
      useEnhancedDeviceSupport: 1
      windowsStandalone_useSteamRawInputControllerWorkaround: 0
      osxStandalone_useEnhancedDeviceSupport: 1
      android_supportUnknownGamepads: 1
      ps4_assignJoysticksByPS4JoyId: 1
      useSteamControllerSupport: 1
      logToScreen: 0
      runInEditMode: 0
      allowInputInEditorSceneView: 0
      platformVars_windowsStandalone:
        disableKeyboard: 0
        disableMouse: 0
        ignoreInputWhenAppNotInFocus: 1
        useNativeKeyboard: 1
        joystickRefreshRate: 240
      platformVars_linuxStandalone:
        disableKeyboard: 0
        disableMouse: 0
        ignoreInputWhenAppNotInFocus: 1
      platformVars_osxStandalone:
        disableKeyboard: 0
        disableMouse: 0
        ignoreInputWhenAppNotInFocus: 1
        useAppleGameController: 1
        assignJoysticksByUserId: 0
      platformVars_windowsUWP:
        disableKeyboard: 0
        disableMouse: 0
        ignoreInputWhenAppNotInFocus: 1
        useGamepadAPI: 1
        useHIDAPI: 1
      platformVars_iOS:
        disableKeyboard: 0
        disableMouse: 0
        ignoreInputWhenAppNotInFocus: 1
      platformVars_tvOS:
        disableKeyboard: 0
        disableMouse: 0
        ignoreInputWhenAppNotInFocus: 1
      platformVars_android:
        disableKeyboard: 0
        disableMouse: 0
        ignoreInputWhenAppNotInFocus: 1
      platformVars_ps4:
        disableKeyboard: 0
        disableMouse: 0
        ignoreInputWhenAppNotInFocus: 1
      platformVars_ps5:
        disableKeyboard: 0
        disableMouse: 0
        ignoreInputWhenAppNotInFocus: 1
        assignJoysticksByPS5JoyId: 1
      platformVars_psVita:
        disableKeyboard: 0
        disableMouse: 0
        ignoreInputWhenAppNotInFocus: 1
      platformVars_xboxOne:
        disableKeyboard: 0
        disableMouse: 0
        ignoreInputWhenAppNotInFocus: 1
      platformVars_gameCoreXboxOne:
        disableKeyboard: 0
        disableMouse: 0
        ignoreInputWhenAppNotInFocus: 1
        assignJoysticksByUserId: 0
      platformVars_gameCoreScarlett:
        disableKeyboard: 0
        disableMouse: 0
        ignoreInputWhenAppNotInFocus: 1
        assignJoysticksByUserId: 0
      platformVars_switch:
        disableKeyboard: 0
        disableMouse: 0
        ignoreInputWhenAppNotInFocus: 1
      platformVars_webGL:
        disableKeyboard: 0
        disableMouse: 0
        ignoreInputWhenAppNotInFocus: 1
      platformVars_stadia:
        disableKeyboard: 0
        disableMouse: 0
        ignoreInputWhenAppNotInFocus: 1
        useNativeKeyboard: 1
        useNativeMouse: 1
      maxJoysticksPerPlayer: 1
      autoAssignJoysticks: 1
      assignJoysticksToPlayingPlayersOnly: 0
      distributeJoysticksEvenly: 1
      reassignJoystickToPreviousOwnerOnReconnect: 1
      defaultJoystickAxis2DDeadZoneType: 1
      defaultJoystickAxis2DSensitivityType: 0
      defaultAxisSensitivityType: 0
      force4WayHats: 0
      throttleCalibrationMode: 0
      activateActionButtonsOnNegativeValue: 0
      deferControllerConnectedEventsOnStart: 0
      logLevel: 7
      editorSettings:
        exportConsts_useParentClass: 0
        exportConsts_parentClassName: RewiredConsts
        exportConsts_useNamespace: 1
        exportConsts_namespace: RewiredConsts
        exportConsts_actions: 1
        exportConsts_actionsClassName: Action
        exportConsts_actionsIncludeActionCategory: 0
        exportConsts_actionsCreateClassesForActionCategories: 0
        exportConsts_mapCategories: 1
        exportConsts_mapCategoriesClassName: Category
        exportConsts_layouts: 1
        exportConsts_layoutsClassName: Layout
        exportConsts_players: 1
        exportConsts_playersClassName: Player
        exportConsts_inputBehaviors: 0
        exportConsts_inputBehaviorsClassName: InputBehavior
        exportConsts_customControllers: 0
        exportConsts_customControllersClassName: CustomController
        exportConsts_customControllersAxesClassName: Axis
        exportConsts_customControllersButtonsClassName: Button
        exportConsts_layoutManagerRuleSets: 0
        exportConsts_layoutManagerRuleSetsClassName: LayoutManagerRuleSet
        exportConsts_mapEnablerRuleSets: 0
        exportConsts_mapEnablerRuleSetsClassName: MapEnablerRuleSet
        exportConsts_allCapsConstantNames: 0
    players:
    - _id: 9999999
      _name: System
      _descriptiveName: System
      _startPlaying: 1
      _defaultJoystickMaps: []
      _defaultMouseMaps: []
      _defaultKeyboardMaps:
      - _enabled: 1
        _categoryId: 0
        _layoutId: 0
      _defaultCustomControllerMaps: []
      _startingCustomControllers: []
      _assignMouseOnStart: 1
      _assignKeyboardOnStart: 1
      _excludeFromControllerAutoAssignment: 1
      _controllerMapLayoutManagerSettings:
        _enabled: 1
        _loadFromUserDataStore: 1
        _ruleSets: []
      _controllerMapEnablerSettings:
        _enabled: 1
        _ruleSets: []
    - _id: 1
      _name: Player
      _descriptiveName: Player
      _startPlaying: 1
      _defaultJoystickMaps: []
      _defaultMouseMaps: []
      _defaultKeyboardMaps:
      - _enabled: 1
        _categoryId: 0
        _layoutId: 0
      _defaultCustomControllerMaps: []
      _startingCustomControllers: []
      _assignMouseOnStart: 1
      _assignKeyboardOnStart: 1
      _excludeFromControllerAutoAssignment: 0
      _controllerMapLayoutManagerSettings:
        _enabled: 1
        _loadFromUserDataStore: 1
        _ruleSets: []
      _controllerMapEnablerSettings:
        _enabled: 1
        _ruleSets: []
    actions:
    - _id: 0
      _name: MoveHorizontal
      _type: 0
      _descriptiveName: MoveHorizontal
      _positiveDescriptiveName: MoveRight
      _negativeDescriptiveName: MoveLeft
      _behaviorId: 0
      _userAssignable: 1
      _categoryId: 1
    - _id: 1
      _name: MoveVertical
      _type: 0
      _descriptiveName: MoveVertical
      _positiveDescriptiveName: MoveForward
      _negativeDescriptiveName: MoveBackward
      _behaviorId: 0
      _userAssignable: 1
      _categoryId: 1
    - _id: 2
      _name: Jump
      _type: 1
      _descriptiveName: Jump
      _positiveDescriptiveName: 
      _negativeDescriptiveName: 
      _behaviorId: 0
      _userAssignable: 1
      _categoryId: 1
    actionCategories:
    - _name: Default
      _descriptiveName: Default
      _tag: 
      _id: 0
      _userAssignable: 1
    - _name: Player
      _descriptiveName: Player
      _tag: 
      _id: 1
      _userAssignable: 1
    actionCategoryMap:
      list:
      - categoryId: 0
        actionIds: 
      - categoryId: 1
        actionIds: 000000000100000002000000
    inputBehaviors:
    - _id: 0
      _name: Default
      _joystickAxisSensitivity: 1
      _digitalAxisSimulation: 1
      _digitalAxisSnap: 1
      _digitalAxisInstantReverse: 0
      _digitalAxisGravity: 3
      _digitalAxisSensitivity: 3
      _mouseXYAxisMode: 0
      _mouseOtherAxisMode: 0
      _mouseXYAxisSensitivity: 1
      _mouseXYAxisDeltaCalc: 0
      _mouseOtherAxisSensitivity: 1
      _customControllerAxisSensitivity: 1
      _buttonDoublePressSpeed: 0.3
      _buttonShortPressTime: 0.25
      _buttonShortPressExpiresIn: 0
      _buttonLongPressTime: 1
      _buttonLongPressExpiresIn: 0
      _buttonDeadZone: 0.5
      _buttonDownBuffer: 0
      _buttonRepeatRate: 30
      _buttonRepeatDelay: 0
    mapCategories:
    - _name: Default
      _descriptiveName: Default
      _tag: 
      _id: 0
      _userAssignable: 1
      _checkConflictsWithAllCategories: 1
      _checkConflictsCategoryIds: 
    joystickLayouts:
    - _name: Default
      _descriptiveName: Default
      _id: 0
    keyboardLayouts:
    - _name: Default
      _descriptiveName: Default
      _id: 0
    mouseLayouts:
    - _name: Default
      _descriptiveName: Default
      _id: 0
    customControllerLayouts:
    - _name: Default
      _descriptiveName: Default
      _id: 0
    joystickMaps: []
    keyboardMaps:
    - id: 1
      categoryId: 0
      layoutId: 0
      name: 
      hardwareGuidString: 
      customControllerUid: 0
      actionElementMaps:
      - _actionCategoryId: 0
        _actionId: 1
        _elementType: 1
        _elementIdentifierId: -1
        _axisRange: 0
        _invert: 0
        _axisContribution: 0
        _keyboardKeyCode: 273
        _modifierKey1: 0
        _modifierKey2: 0
        _modifierKey3: 0
      - _actionCategoryId: 0
        _actionId: 1
        _elementType: 1
        _elementIdentifierId: -1
        _axisRange: 0
        _invert: 0
        _axisContribution: 1
        _keyboardKeyCode: 274
        _modifierKey1: 0
        _modifierKey2: 0
        _modifierKey3: 0
      - _actionCategoryId: 0
        _actionId: 0
        _elementType: 1
        _elementIdentifierId: -1
        _axisRange: 0
        _invert: 0
        _axisContribution: 1
        _keyboardKeyCode: 276
        _modifierKey1: 0
        _modifierKey2: 0
        _modifierKey3: 0
      - _actionCategoryId: 0
        _actionId: 0
        _elementType: 1
        _elementIdentifierId: -1
        _axisRange: 0
        _invert: 0
        _axisContribution: 0
        _keyboardKeyCode: 275
        _modifierKey1: 0
        _modifierKey2: 0
        _modifierKey3: 0
      - _actionCategoryId: 0
        _actionId: 2
        _elementType: 1
        _elementIdentifierId: -1
        _axisRange: 0
        _invert: 0
        _axisContribution: 0
        _keyboardKeyCode: 32
        _modifierKey1: 0
        _modifierKey2: 0
        _modifierKey3: 0
    mouseMaps: []
    customControllerMaps: []
    customControllers: []
    controllerMapLayoutManagerRuleSets: []
    controllerMapEnablerRuleSets: []
    playerIdCounter: 2
    actionIdCounter: 3
    actionCategoryIdCounter: 2
    inputBehaviorIdCounter: 1
    mapCategoryIdCounter: 1
    joystickLayoutIdCounter: 1
    keyboardLayoutIdCounter: 2
    mouseLayoutIdCounter: 1
    customControllerLayoutIdCounter: 1
    joystickMapIdCounter: 0
    keyboardMapIdCounter: 2
    mouseMapIdCounter: 0
    customControllerMapIdCounter: 0
    customControllerIdCounter: 0
    controllerMapLayoutManagerSetIdCounter: 0
    controllerMapEnablerSetIdCounter: 0
  _controllerDataFiles: {fileID: 11400000, guid: d21d2b20df8369642b76aafbb2576ba7,
    type: 2}
--- !u!4 &686902505
Transform:
  m_ObjectHideFlags: 0
  m_CorrespondingSourceObject: {fileID: 0}
  m_PrefabInstance: {fileID: 0}
  m_PrefabAsset: {fileID: 0}
  m_GameObject: {fileID: 686902503}
  m_LocalRotation: {x: 0, y: 0, z: 0, w: 1}
  m_LocalPosition: {x: 0, y: 0, z: 0}
  m_LocalScale: {x: 1, y: 1, z: 1}
  m_Children: []
  m_Father: {fileID: 0}
  m_RootOrder: 8
  m_LocalEulerAnglesHint: {x: 0, y: 0, z: 0}
--- !u!4 &700051398 stripped
Transform:
  m_CorrespondingSourceObject: {fileID: 8338988566280778637, guid: 64dce48905ffd9b4293e595fa6941544,
    type: 3}
  m_PrefabInstance: {fileID: 1762682258}
  m_PrefabAsset: {fileID: 0}
--- !u!1001 &746329221
PrefabInstance:
  m_ObjectHideFlags: 0
  serializedVersion: 2
  m_Modification:
    m_TransformParent: {fileID: 0}
    m_Modifications:
    - target: {fileID: 1992104595683069851, guid: f0271df749728104eac22c3d897fd8ce,
        type: 3}
      propertyPath: m_Name
      value: UI_EventSystem
      objectReference: {fileID: 0}
    - target: {fileID: 8063073397250431797, guid: f0271df749728104eac22c3d897fd8ce,
        type: 3}
      propertyPath: m_RootOrder
      value: 6
      objectReference: {fileID: 0}
    - target: {fileID: 8063073397250431797, guid: f0271df749728104eac22c3d897fd8ce,
        type: 3}
      propertyPath: m_LocalScale.x
      value: 1
      objectReference: {fileID: 0}
    - target: {fileID: 8063073397250431797, guid: f0271df749728104eac22c3d897fd8ce,
        type: 3}
      propertyPath: m_LocalScale.y
      value: 1
      objectReference: {fileID: 0}
    - target: {fileID: 8063073397250431797, guid: f0271df749728104eac22c3d897fd8ce,
        type: 3}
      propertyPath: m_LocalScale.z
      value: 1
      objectReference: {fileID: 0}
    - target: {fileID: 8063073397250431797, guid: f0271df749728104eac22c3d897fd8ce,
        type: 3}
      propertyPath: m_LocalPosition.x
      value: 0
      objectReference: {fileID: 0}
    - target: {fileID: 8063073397250431797, guid: f0271df749728104eac22c3d897fd8ce,
        type: 3}
      propertyPath: m_LocalPosition.y
      value: 0
      objectReference: {fileID: 0}
    - target: {fileID: 8063073397250431797, guid: f0271df749728104eac22c3d897fd8ce,
        type: 3}
      propertyPath: m_LocalPosition.z
      value: 0
      objectReference: {fileID: 0}
    - target: {fileID: 8063073397250431797, guid: f0271df749728104eac22c3d897fd8ce,
        type: 3}
      propertyPath: m_LocalRotation.w
      value: 1
      objectReference: {fileID: 0}
    - target: {fileID: 8063073397250431797, guid: f0271df749728104eac22c3d897fd8ce,
        type: 3}
      propertyPath: m_LocalRotation.x
      value: -0
      objectReference: {fileID: 0}
    - target: {fileID: 8063073397250431797, guid: f0271df749728104eac22c3d897fd8ce,
        type: 3}
      propertyPath: m_LocalRotation.y
      value: -0
      objectReference: {fileID: 0}
    - target: {fileID: 8063073397250431797, guid: f0271df749728104eac22c3d897fd8ce,
        type: 3}
      propertyPath: m_LocalRotation.z
      value: -0
      objectReference: {fileID: 0}
    - target: {fileID: 8063073397250431797, guid: f0271df749728104eac22c3d897fd8ce,
        type: 3}
      propertyPath: m_LocalEulerAnglesHint.x
      value: 0
      objectReference: {fileID: 0}
    - target: {fileID: 8063073397250431797, guid: f0271df749728104eac22c3d897fd8ce,
        type: 3}
      propertyPath: m_LocalEulerAnglesHint.y
      value: 0
      objectReference: {fileID: 0}
    - target: {fileID: 8063073397250431797, guid: f0271df749728104eac22c3d897fd8ce,
        type: 3}
      propertyPath: m_LocalEulerAnglesHint.z
      value: 0
      objectReference: {fileID: 0}
    m_RemovedComponents: []
  m_SourcePrefab: {fileID: 100100000, guid: f0271df749728104eac22c3d897fd8ce, type: 3}
--- !u!1 &874605735
GameObject:
  m_ObjectHideFlags: 0
  m_CorrespondingSourceObject: {fileID: 0}
  m_PrefabInstance: {fileID: 0}
  m_PrefabAsset: {fileID: 0}
  serializedVersion: 6
  m_Component:
  - component: {fileID: 874605736}
  - component: {fileID: 874605737}
  m_Layer: 0
  m_Name: Light Probe Group (1)
  m_TagString: Untagged
  m_Icon: {fileID: 0}
  m_NavMeshLayer: 0
  m_StaticEditorFlags: 0
  m_IsActive: 1
--- !u!4 &874605736
Transform:
  m_ObjectHideFlags: 0
  m_CorrespondingSourceObject: {fileID: 0}
  m_PrefabInstance: {fileID: 0}
  m_PrefabAsset: {fileID: 0}
  m_GameObject: {fileID: 874605735}
  m_LocalRotation: {x: -0, y: -0, z: -0, w: 1}
  m_LocalPosition: {x: 0.19, y: 1.79, z: 21.97}
  m_LocalScale: {x: 1, y: 1, z: 1}
  m_Children: []
  m_Father: {fileID: 2114283753834967213}
  m_RootOrder: 4
  m_LocalEulerAnglesHint: {x: 0, y: 0, z: 0}
--- !u!220 &874605737
LightProbeGroup:
  m_ObjectHideFlags: 0
  m_CorrespondingSourceObject: {fileID: 0}
  m_PrefabInstance: {fileID: 0}
  m_PrefabAsset: {fileID: 0}
  m_GameObject: {fileID: 874605735}
  m_Enabled: 1
  m_SourcePositions:
  - {x: -6.4548373, y: 8.806516, z: 6.631113}
  - {x: -6.4548373, y: -1.5343618, z: 6.631113}
  - {x: 8.993203, y: 8.806516, z: 6.631113}
  - {x: 8.993203, y: -1.5343618, z: 6.631113}
  - {x: -11.939235, y: 8.806516, z: 6.631113}
  - {x: -11.939235, y: -1.5343618, z: 6.631113}
  - {x: 3.7731261, y: 8.806516, z: 6.631113}
  - {x: 3.7731261, y: -1.5343618, z: 6.631113}
  - {x: 20.137163, y: 8.806516, z: 6.631113}
  - {x: 20.137163, y: -1.5343618, z: 6.631113}
  - {x: 14.257168, y: 8.806516, z: 6.631113}
  - {x: 14.257168, y: -1.5343618, z: 6.631113}
  - {x: -6.4548373, y: 2.3566551, z: 6.631113}
  - {x: 8.993203, y: 2.3566551, z: 6.631113}
  - {x: -11.939235, y: 2.3566551, z: 6.631113}
  - {x: 3.7731261, y: 2.3566551, z: 6.631113}
  - {x: 20.137163, y: 2.3566551, z: 6.631113}
  - {x: 14.257168, y: 2.3566551, z: 6.631113}
  - {x: -1.5323329, y: 8.806516, z: 6.631113}
  - {x: -1.5323329, y: -1.5343618, z: 6.631113}
  - {x: -1.5323329, y: 2.3566551, z: 6.631113}
  - {x: -6.4548373, y: 8.806516, z: -23.531504}
  - {x: -6.4548373, y: -1.5343618, z: -23.531504}
  - {x: 8.993203, y: 8.806516, z: -23.531504}
  - {x: 8.993203, y: -1.5343618, z: -23.531504}
  - {x: -11.939235, y: 8.806516, z: -23.531504}
  - {x: -11.939235, y: -1.5343618, z: -23.531504}
  - {x: 3.7731261, y: 8.806516, z: -23.531504}
  - {x: 3.7731261, y: -1.5343618, z: -23.531504}
  - {x: 20.137163, y: 8.806516, z: -23.531504}
  - {x: 20.137163, y: -1.5343618, z: -23.531504}
  - {x: 14.257168, y: 8.806516, z: -23.531504}
  - {x: 14.257168, y: -1.5343618, z: -23.531504}
  - {x: -6.4548373, y: 2.3566551, z: -23.531504}
  - {x: 8.993203, y: 2.3566551, z: -23.531504}
  - {x: -11.939235, y: 2.3566551, z: -23.531504}
  - {x: 3.7731261, y: 2.3566551, z: -23.531504}
  - {x: 20.137163, y: 2.3566551, z: -23.531504}
  - {x: 14.257168, y: 2.3566551, z: -23.531504}
  - {x: -1.5323329, y: 8.806516, z: -23.531504}
  - {x: -1.5323329, y: -1.5343618, z: -23.531504}
  - {x: -1.5323329, y: 2.3566551, z: -23.531504}
  - {x: -6.4548373, y: 8.806516, z: -19.921879}
  - {x: -6.0616884, y: -1.5343618, z: -19.921879}
  - {x: 8.993203, y: 8.806516, z: -19.921879}
  - {x: 8.993203, y: -1.5343618, z: -19.921879}
  - {x: -11.939235, y: 8.806516, z: -19.921879}
  - {x: -11.939235, y: -1.5343618, z: -19.921879}
  - {x: 3.7731261, y: 8.806516, z: -19.921879}
  - {x: 3.7731261, y: -1.5343618, z: -19.921879}
  - {x: 20.137163, y: 8.806516, z: -19.921879}
  - {x: 20.137163, y: -1.5343618, z: -19.921879}
  - {x: 14.257168, y: 8.806516, z: -19.921879}
  - {x: 14.257168, y: -1.5343618, z: -19.921879}
  - {x: -6.4548373, y: 2.3566551, z: -19.921879}
  - {x: 8.993203, y: 2.3566551, z: -19.921879}
  - {x: -11.939235, y: 2.3566551, z: -19.921879}
  - {x: 3.7731261, y: 2.3566551, z: -19.921879}
  - {x: 20.137163, y: 2.3566551, z: -19.921879}
  - {x: 14.257168, y: 2.3566551, z: -19.921879}
  - {x: -1.5323329, y: 8.806516, z: -19.921879}
  - {x: -1.5323329, y: -1.5343618, z: -19.921879}
  - {x: -1.5323329, y: 2.3566551, z: -19.921879}
  - {x: -6.4548373, y: 8.806516, z: -16.06502}
  - {x: -6.4548373, y: -1.5343618, z: -16.06502}
  - {x: 8.993203, y: 8.806516, z: -16.06502}
  - {x: 8.993203, y: -1.5343618, z: -16.06502}
  - {x: -11.939235, y: 8.806516, z: -16.06502}
  - {x: -11.939235, y: -1.5343618, z: -16.06502}
  - {x: 3.7731261, y: 8.806516, z: -16.06502}
  - {x: 3.7731261, y: -1.5343618, z: -16.06502}
  - {x: 20.137163, y: 8.806516, z: -16.06502}
  - {x: 20.137163, y: -1.5343618, z: -16.06502}
  - {x: 14.257168, y: 8.806516, z: -16.06502}
  - {x: 14.257168, y: -1.5343618, z: -16.06502}
  - {x: -6.4548373, y: 2.3566551, z: -16.06502}
  - {x: 8.993203, y: 2.3566551, z: -16.06502}
  - {x: -11.939235, y: 2.3566551, z: -16.06502}
  - {x: 3.7731261, y: 2.3566551, z: -16.06502}
  - {x: 20.137163, y: 2.3566551, z: -16.06502}
  - {x: 14.257168, y: 2.3566551, z: -16.06502}
  - {x: -1.5323329, y: 8.806516, z: -16.06502}
  - {x: -1.5323329, y: -1.5343618, z: -16.06502}
  - {x: -1.5323329, y: 2.3566551, z: -16.06502}
  - {x: -6.4548373, y: 8.806516, z: -12.3070545}
  - {x: -6.4548373, y: -1.5343618, z: -12.3070545}
  - {x: 8.993203, y: 8.806516, z: -12.3070545}
  - {x: 8.993203, y: -1.1842765, z: -13.780704}
  - {x: -11.939235, y: 8.806516, z: -12.3070545}
  - {x: -11.939235, y: -1.5343618, z: -12.3070545}
  - {x: 3.7731261, y: 8.806516, z: -12.3070545}
  - {x: 6.021616, y: 0.8727715, z: -13.780704}
  - {x: 20.137163, y: 8.806516, z: -12.3070545}
  - {x: 20.137163, y: -1.5343618, z: -12.3070545}
  - {x: 14.257168, y: 8.806516, z: -12.3070545}
  - {x: 14.257168, y: -1.1973814, z: -12.3070545}
  - {x: -6.4548373, y: 2.3566551, z: -12.3070545}
  - {x: 1.6883464, y: 2.7763042, z: -6.8005238}
  - {x: -11.939235, y: 2.3566551, z: -12.3070545}
  - {x: 3.7731261, y: 4.7772913, z: -12.3070545}
  - {x: 20.137163, y: 2.3566551, z: -12.3070545}
  - {x: 14.257168, y: 2.3566551, z: -12.3070545}
  - {x: -1.5323329, y: 8.806516, z: -12.3070545}
  - {x: -1.5323329, y: -1.5343618, z: -12.3070545}
  - {x: -1.5323329, y: 2.3566551, z: -12.3070545}
  - {x: -6.4548373, y: 8.806516, z: -8.796325}
  - {x: -6.4548373, y: -1.5343618, z: -8.796325}
  - {x: 8.993203, y: 8.806516, z: -8.796325}
  - {x: 8.993203, y: -1.1842765, z: -8.796325}
  - {x: -11.939235, y: 8.806516, z: -8.796325}
  - {x: -11.939235, y: -1.5343618, z: -8.796325}
  - {x: 3.7731261, y: 8.806516, z: -8.796325}
  - {x: 6.021616, y: 0.8727715, z: -8.796325}
  - {x: 20.137163, y: 8.806516, z: -8.796325}
  - {x: 20.137163, y: -1.5343618, z: -8.796325}
  - {x: 14.257168, y: 8.806516, z: -8.796325}
  - {x: 14.257168, y: -1.1973814, z: -8.796325}
  - {x: -6.4548373, y: 2.3566551, z: -8.796325}
  - {x: 6.695057, y: 2.3566551, z: -8.796325}
  - {x: -11.939235, y: 2.3566551, z: -8.796325}
  - {x: 3.7731261, y: 2.3566551, z: -8.796325}
  - {x: 20.137163, y: 2.3566551, z: -8.796325}
  - {x: 14.257168, y: 2.3566551, z: -8.796325}
  - {x: -1.5323329, y: 8.806516, z: -8.796325}
  - {x: 1.6580772, y: 1.1665359, z: -8.796325}
  - {x: -1.5323329, y: 2.3566551, z: -8.796325}
  - {x: -6.4548373, y: 8.806516, z: -4.8405704}
  - {x: -6.4548373, y: -1.5343618, z: -4.8405704}
  - {x: 8.993203, y: 8.806516, z: -4.8405704}
  - {x: 9.349902, y: -1.2554649, z: -1.9392796}
  - {x: -11.939235, y: 8.806516, z: -4.8405704}
  - {x: -11.939235, y: -1.5343618, z: -4.8405704}
  - {x: 3.7731261, y: 8.806516, z: -4.8405704}
  - {x: 3.7731261, y: -1.5343618, z: -4.8405704}
  - {x: 20.137163, y: 8.806516, z: -4.8405704}
  - {x: 20.137163, y: -1.5343618, z: -4.8405704}
  - {x: 14.257168, y: 8.806516, z: -4.8405704}
  - {x: 10.899697, y: -1.2109127, z: -10.787819}
  - {x: -6.4548373, y: 2.3566551, z: -4.8405704}
  - {x: 6.930959, y: 3.292191, z: -5.2275963}
  - {x: -11.939235, y: 2.3566551, z: -4.8405704}
  - {x: 3.7731261, y: 2.3566551, z: -4.8405704}
  - {x: 20.137163, y: 2.3566551, z: -4.8405704}
  - {x: 14.257168, y: 2.3566551, z: -4.8405704}
  - {x: -1.5323329, y: 8.806516, z: -4.8405704}
  - {x: 1.6580772, y: 1.1665359, z: -4.8405704}
  - {x: -1.5323329, y: 2.3566551, z: -4.8405704}
  - {x: -6.4548373, y: 8.806516, z: -0.7364769}
  - {x: -6.4548373, y: -1.5343618, z: -0.7364769}
  - {x: 8.993203, y: 8.806516, z: -0.7364769}
  - {x: 8.993203, y: -1.5343618, z: -0.7364769}
  - {x: -11.939235, y: 8.806516, z: -0.7364769}
  - {x: -11.939235, y: -1.5343618, z: -0.7364769}
  - {x: 3.7731261, y: 8.806516, z: -0.7364769}
  - {x: 3.7731261, y: -1.5343618, z: -0.7364769}
  - {x: 20.137163, y: 8.806516, z: -0.7364769}
  - {x: 20.137163, y: -1.5343618, z: -0.7364769}
  - {x: 14.257168, y: 8.806516, z: -0.7364769}
  - {x: 14.257168, y: -1.5343618, z: -0.7364769}
  - {x: -6.4548373, y: 2.3566551, z: -0.7364769}
  - {x: 8.993203, y: 2.3566551, z: -0.7364769}
  - {x: -11.939235, y: 2.3566551, z: -0.7364769}
  - {x: 3.7731261, y: 2.3566551, z: -0.7364769}
  - {x: 20.137163, y: 2.3566551, z: -0.7364769}
  - {x: 14.257168, y: 2.3566551, z: -0.7364769}
  - {x: -1.5323329, y: 8.806516, z: -0.7364769}
  - {x: -1.5323329, y: -1.5343618, z: -0.7364769}
  - {x: -1.5323329, y: 2.3566551, z: -0.7364769}
  - {x: -6.4548373, y: 8.806516, z: 2.972042}
  - {x: -6.4548373, y: -1.5343618, z: 2.972042}
  - {x: 8.993203, y: 8.806516, z: 2.972042}
  - {x: 8.993203, y: -1.5343618, z: 2.972042}
  - {x: -11.939235, y: 8.806516, z: 2.972042}
  - {x: -11.939235, y: -1.5343618, z: 2.972042}
  - {x: 3.7731261, y: 8.806516, z: 2.972042}
  - {x: 3.7731261, y: -1.5343618, z: 2.972042}
  - {x: 20.137163, y: 8.806516, z: 2.972042}
  - {x: 20.137163, y: -1.5343618, z: 2.972042}
  - {x: 14.257168, y: 8.806516, z: 2.972042}
  - {x: 14.257168, y: -1.5343618, z: 1.788044}
  - {x: -6.4548373, y: 2.3566551, z: 2.972042}
  - {x: 8.993203, y: 2.3566551, z: 2.972042}
  - {x: -11.939235, y: 2.3566551, z: 2.972042}
  - {x: 3.7731261, y: 2.3566551, z: 2.972042}
  - {x: 20.137163, y: 2.3566551, z: 2.972042}
  - {x: 14.257168, y: 2.3566551, z: 2.972042}
  - {x: -1.5323329, y: 8.806516, z: 2.972042}
  - {x: -1.5323329, y: -1.5343618, z: 2.972042}
  - {x: -1.5323329, y: 2.3566551, z: 2.972042}
  - {x: 3.7731261, y: 0.8727715, z: -13.780704}
  - {x: 3.7731261, y: 0.8727715, z: -8.796325}
  - {x: 6.021616, y: -1.5343618, z: -13.780704}
  - {x: 6.021616, y: -1.5343618, z: -8.796325}
  - {x: 3.7731261, y: -1.5343618, z: -8.796325}
  - {x: 3.7731261, y: -1.5343618, z: -13.780704}
  - {x: 8.993203, y: -1.1842765, z: -11.099201}
  - {x: 6.021616, y: -1.5343618, z: -11.099201}
  - {x: 3.7731261, y: -1.5343618, z: -11.099201}
  - {x: 3.7731261, y: 0.8727715, z: -11.099201}
  - {x: 6.021616, y: 0.8727715, z: -11.099201}
  - {x: 7.5302963, y: -1.5343618, z: -13.780704}
  - {x: 7.5302963, y: -1.5343618, z: -11.099201}
  - {x: 7.5302963, y: 0.8727715, z: -13.780704}
  - {x: 7.5302963, y: 0.8727715, z: -11.099201}
  - {x: 7.5302963, y: -1.5343618, z: -8.796325}
  - {x: 7.5302963, y: 0.8727715, z: -8.796325}
  - {x: 1.6580772, y: -1.5343618, z: -8.796325}
  - {x: 1.6580772, y: -1.5343618, z: -4.8405704}
  - {x: -2.8646894, y: 1.1665359, z: -8.796325}
  - {x: -2.8646894, y: 1.1665359, z: -4.8405704}
  - {x: -2.8646894, y: -1.5343618, z: -4.8405704}
  - {x: -2.8646894, y: -1.5343618, z: -8.796325}
  - {x: -0.6420018, y: 1.1665359, z: -8.796325}
  - {x: -0.6420018, y: 1.1665359, z: -4.8405704}
  - {x: -0.6420018, y: -1.5343618, z: -4.8405704}
  - {x: -0.6420018, y: -1.5343618, z: -8.796325}
  - {x: 5.4116697, y: 0.2312541, z: -3.227993}
  - {x: 5.4116697, y: -1.2554649, z: -1.9392796}
  - {x: 14.257168, y: -1.2109127, z: -4.8405704}
  - {x: 9.325397, y: 1.6076849, z: -5.8184357}
  - {x: 11.965946, y: -1.2109127, z: -5.8184357}
  - {x: 8.993203, y: 3.6047301, z: -12.3070545}
  - {x: 7.1518564, y: 5.7025332, z: -13.247855}
  - {x: 7.1518564, y: 2.7763042, z: -11.2319765}
  - {x: 8.993203, y: 2.3566551, z: -8.796325}
  m_Dering: 1
--- !u!1 &1028513131
GameObject:
  m_ObjectHideFlags: 0
  m_CorrespondingSourceObject: {fileID: 0}
  m_PrefabInstance: {fileID: 0}
  m_PrefabAsset: {fileID: 0}
  serializedVersion: 6
  m_Component:
  - component: {fileID: 1028513133}
  - component: {fileID: 1028513132}
  m_Layer: 0
  m_Name: Reflection Probe
  m_TagString: Untagged
  m_Icon: {fileID: 0}
  m_NavMeshLayer: 0
  m_StaticEditorFlags: 0
  m_IsActive: 1
--- !u!215 &1028513132
ReflectionProbe:
  m_ObjectHideFlags: 0
  m_CorrespondingSourceObject: {fileID: 0}
  m_PrefabInstance: {fileID: 0}
  m_PrefabAsset: {fileID: 0}
  m_GameObject: {fileID: 1028513131}
  m_Enabled: 1
  serializedVersion: 2
  m_Type: 0
  m_Mode: 0
  m_RefreshMode: 0
  m_TimeSlicingMode: 0
  m_Resolution: 128
  m_UpdateFrequency: 0
  m_BoxSize: {x: 40.607887, y: 19.86776, z: 37.433754}
  m_BoxOffset: {x: 2.4737587, y: -4.2929897, z: 3.4355164}
  m_NearClip: 0.3
  m_FarClip: 1000
  m_ShadowDistance: 100
  m_ClearFlags: 1
  m_BackGroundColor: {r: 0.19215687, g: 0.3019608, b: 0.4745098, a: 0}
  m_CullingMask:
    serializedVersion: 2
    m_Bits: 4294967295
  m_IntensityMultiplier: 1
  m_BlendDistance: 1
  m_HDR: 1
  m_BoxProjection: 1
  m_RenderDynamicObjects: 0
  m_UseOcclusionCulling: 1
  m_Importance: 1
  m_CustomBakedTexture: {fileID: 0}
--- !u!4 &1028513133
Transform:
  m_ObjectHideFlags: 0
  m_CorrespondingSourceObject: {fileID: 0}
  m_PrefabInstance: {fileID: 0}
  m_PrefabAsset: {fileID: 0}
  m_GameObject: {fileID: 1028513131}
  m_LocalRotation: {x: -0, y: -0, z: -0, w: 1}
  m_LocalPosition: {x: 1.5, y: 12, z: 10}
  m_LocalScale: {x: 1, y: 1, z: 1}
  m_Children: []
  m_Father: {fileID: 2114283753834967213}
  m_RootOrder: 1
  m_LocalEulerAnglesHint: {x: 0, y: 0, z: 0}
--- !u!1001 &1221041499
PrefabInstance:
  m_ObjectHideFlags: 0
  serializedVersion: 2
  m_Modification:
    m_TransformParent: {fileID: 0}
    m_Modifications:
    - target: {fileID: 8944336655422409496, guid: f6d148d888ffbf54b9afe9936dfaec1f,
        type: 3}
      propertyPath: far clip plane
      value: 500
      objectReference: {fileID: 0}
    - target: {fileID: 8944336655422409498, guid: f6d148d888ffbf54b9afe9936dfaec1f,
        type: 3}
      propertyPath: m_Name
      value: MainCamera
      objectReference: {fileID: 0}
    - target: {fileID: 8944336655422409503, guid: f6d148d888ffbf54b9afe9936dfaec1f,
        type: 3}
      propertyPath: m_RootOrder
      value: 2
      objectReference: {fileID: 0}
    - target: {fileID: 8944336655422409503, guid: f6d148d888ffbf54b9afe9936dfaec1f,
        type: 3}
      propertyPath: m_LocalPosition.x
      value: 0.20000005
      objectReference: {fileID: 0}
    - target: {fileID: 8944336655422409503, guid: f6d148d888ffbf54b9afe9936dfaec1f,
        type: 3}
      propertyPath: m_LocalPosition.y
      value: 1.375
      objectReference: {fileID: 0}
    - target: {fileID: 8944336655422409503, guid: f6d148d888ffbf54b9afe9936dfaec1f,
        type: 3}
      propertyPath: m_LocalPosition.z
      value: -4
      objectReference: {fileID: 0}
    - target: {fileID: 8944336655422409503, guid: f6d148d888ffbf54b9afe9936dfaec1f,
        type: 3}
      propertyPath: m_LocalRotation.w
      value: 1
      objectReference: {fileID: 0}
    - target: {fileID: 8944336655422409503, guid: f6d148d888ffbf54b9afe9936dfaec1f,
        type: 3}
      propertyPath: m_LocalRotation.x
      value: 0
      objectReference: {fileID: 0}
    - target: {fileID: 8944336655422409503, guid: f6d148d888ffbf54b9afe9936dfaec1f,
        type: 3}
      propertyPath: m_LocalRotation.y
      value: 0
      objectReference: {fileID: 0}
    - target: {fileID: 8944336655422409503, guid: f6d148d888ffbf54b9afe9936dfaec1f,
        type: 3}
      propertyPath: m_LocalRotation.z
      value: 0
      objectReference: {fileID: 0}
    - target: {fileID: 8944336655422409503, guid: f6d148d888ffbf54b9afe9936dfaec1f,
        type: 3}
      propertyPath: m_LocalEulerAnglesHint.x
      value: 0
      objectReference: {fileID: 0}
    - target: {fileID: 8944336655422409503, guid: f6d148d888ffbf54b9afe9936dfaec1f,
        type: 3}
      propertyPath: m_LocalEulerAnglesHint.y
      value: 0
      objectReference: {fileID: 0}
    - target: {fileID: 8944336655422409503, guid: f6d148d888ffbf54b9afe9936dfaec1f,
        type: 3}
      propertyPath: m_LocalEulerAnglesHint.z
      value: 0
      objectReference: {fileID: 0}
    m_RemovedComponents: []
  m_SourcePrefab: {fileID: 100100000, guid: f6d148d888ffbf54b9afe9936dfaec1f, type: 3}
--- !u!1 &1221041500 stripped
GameObject:
  m_CorrespondingSourceObject: {fileID: 8944336655422409498, guid: f6d148d888ffbf54b9afe9936dfaec1f,
    type: 3}
  m_PrefabInstance: {fileID: 1221041499}
  m_PrefabAsset: {fileID: 0}
--- !u!1 &1280108436
GameObject:
  m_ObjectHideFlags: 0
  m_CorrespondingSourceObject: {fileID: 0}
  m_PrefabInstance: {fileID: 0}
  m_PrefabAsset: {fileID: 0}
  serializedVersion: 6
  m_Component:
  - component: {fileID: 1280108438}
  - component: {fileID: 1280108437}
  m_Layer: 0
  m_Name: Input System
  m_TagString: Untagged
  m_Icon: {fileID: 0}
  m_NavMeshLayer: 0
  m_StaticEditorFlags: 0
  m_IsActive: 1
--- !u!114 &1280108437
MonoBehaviour:
  m_ObjectHideFlags: 0
  m_CorrespondingSourceObject: {fileID: 0}
  m_PrefabInstance: {fileID: 0}
  m_PrefabAsset: {fileID: 0}
  m_GameObject: {fileID: 1280108436}
  m_Enabled: 1
  m_EditorHideFlags: 0
  m_Script: {fileID: 11500000, guid: 19604f9f18f813e48a1fdbdc2af94318, type: 3}
  m_Name: 
  m_EditorClassIdentifier: 
--- !u!4 &1280108438
Transform:
  m_ObjectHideFlags: 0
  m_CorrespondingSourceObject: {fileID: 0}
  m_PrefabInstance: {fileID: 0}
  m_PrefabAsset: {fileID: 0}
  m_GameObject: {fileID: 1280108436}
  m_LocalRotation: {x: 0, y: 0, z: 0, w: 1}
  m_LocalPosition: {x: 0, y: 0, z: 20}
  m_LocalScale: {x: 1, y: 1, z: 1}
  m_Children: []
  m_Father: {fileID: 0}
  m_RootOrder: 9
  m_LocalEulerAnglesHint: {x: 0, y: 0, z: 0}
--- !u!1001 &1402827283
PrefabInstance:
  m_ObjectHideFlags: 0
  serializedVersion: 2
  m_Modification:
    m_TransformParent: {fileID: 0}
    m_Modifications:
    - target: {fileID: 2070925441746177671, guid: a1a802ecaf6775746bb2a929fb554ad8,
        type: 3}
      propertyPath: m_Name
      value: PlayerFollowCamera
      objectReference: {fileID: 0}
    - target: {fileID: 2070925441746177912, guid: a1a802ecaf6775746bb2a929fb554ad8,
        type: 3}
      propertyPath: m_RootOrder
      value: 3
      objectReference: {fileID: 0}
    - target: {fileID: 2070925441746177912, guid: a1a802ecaf6775746bb2a929fb554ad8,
        type: 3}
      propertyPath: m_LocalPosition.x
      value: 0.20000005
      objectReference: {fileID: 0}
    - target: {fileID: 2070925441746177912, guid: a1a802ecaf6775746bb2a929fb554ad8,
        type: 3}
      propertyPath: m_LocalPosition.y
      value: 1.375
      objectReference: {fileID: 0}
    - target: {fileID: 2070925441746177912, guid: a1a802ecaf6775746bb2a929fb554ad8,
        type: 3}
      propertyPath: m_LocalPosition.z
      value: -4
      objectReference: {fileID: 0}
    - target: {fileID: 2070925441746177912, guid: a1a802ecaf6775746bb2a929fb554ad8,
        type: 3}
      propertyPath: m_LocalRotation.w
      value: 1
      objectReference: {fileID: 0}
    - target: {fileID: 2070925441746177912, guid: a1a802ecaf6775746bb2a929fb554ad8,
        type: 3}
      propertyPath: m_LocalRotation.x
      value: -0
      objectReference: {fileID: 0}
    - target: {fileID: 2070925441746177912, guid: a1a802ecaf6775746bb2a929fb554ad8,
        type: 3}
      propertyPath: m_LocalRotation.y
      value: -0
      objectReference: {fileID: 0}
    - target: {fileID: 2070925441746177912, guid: a1a802ecaf6775746bb2a929fb554ad8,
        type: 3}
      propertyPath: m_LocalRotation.z
      value: -0
      objectReference: {fileID: 0}
    - target: {fileID: 2070925441746177912, guid: a1a802ecaf6775746bb2a929fb554ad8,
        type: 3}
      propertyPath: m_LocalEulerAnglesHint.x
      value: 0
      objectReference: {fileID: 0}
    - target: {fileID: 2070925441746177912, guid: a1a802ecaf6775746bb2a929fb554ad8,
        type: 3}
      propertyPath: m_LocalEulerAnglesHint.y
      value: 0
      objectReference: {fileID: 0}
    - target: {fileID: 2070925441746177912, guid: a1a802ecaf6775746bb2a929fb554ad8,
        type: 3}
      propertyPath: m_LocalEulerAnglesHint.z
      value: 0
      objectReference: {fileID: 0}
    - target: {fileID: 2070925441746177913, guid: a1a802ecaf6775746bb2a929fb554ad8,
        type: 3}
      propertyPath: m_Follow
      value: 
      objectReference: {fileID: 700051398}
    m_RemovedComponents: []
  m_SourcePrefab: {fileID: 100100000, guid: a1a802ecaf6775746bb2a929fb554ad8, type: 3}
--- !u!1 &1457431235 stripped
GameObject:
  m_CorrespondingSourceObject: {fileID: 8338988566280778634, guid: 64dce48905ffd9b4293e595fa6941544,
    type: 3}
  m_PrefabInstance: {fileID: 1762682258}
  m_PrefabAsset: {fileID: 0}
--- !u!1001 &1762682258
PrefabInstance:
  m_ObjectHideFlags: 0
  serializedVersion: 2
  m_Modification:
    m_TransformParent: {fileID: 0}
    m_Modifications:
    - target: {fileID: 3893294197879345259, guid: 64dce48905ffd9b4293e595fa6941544,
        type: 3}
      propertyPath: m_RootOrder
      value: 4
      objectReference: {fileID: 0}
    - target: {fileID: 3893294197879345259, guid: 64dce48905ffd9b4293e595fa6941544,
        type: 3}
      propertyPath: m_LocalPosition.x
      value: 0
      objectReference: {fileID: 0}
    - target: {fileID: 3893294197879345259, guid: 64dce48905ffd9b4293e595fa6941544,
        type: 3}
      propertyPath: m_LocalPosition.y
      value: 0
      objectReference: {fileID: 0}
    - target: {fileID: 3893294197879345259, guid: 64dce48905ffd9b4293e595fa6941544,
        type: 3}
      propertyPath: m_LocalPosition.z
      value: 0
      objectReference: {fileID: 0}
    - target: {fileID: 3893294197879345259, guid: 64dce48905ffd9b4293e595fa6941544,
        type: 3}
      propertyPath: m_LocalRotation.w
      value: 1
      objectReference: {fileID: 0}
    - target: {fileID: 3893294197879345259, guid: 64dce48905ffd9b4293e595fa6941544,
        type: 3}
      propertyPath: m_LocalRotation.x
      value: -0
      objectReference: {fileID: 0}
    - target: {fileID: 3893294197879345259, guid: 64dce48905ffd9b4293e595fa6941544,
        type: 3}
      propertyPath: m_LocalRotation.y
      value: -0
      objectReference: {fileID: 0}
    - target: {fileID: 3893294197879345259, guid: 64dce48905ffd9b4293e595fa6941544,
        type: 3}
      propertyPath: m_LocalRotation.z
      value: -0
      objectReference: {fileID: 0}
    - target: {fileID: 3893294197879345259, guid: 64dce48905ffd9b4293e595fa6941544,
        type: 3}
      propertyPath: m_LocalEulerAnglesHint.x
      value: 0
      objectReference: {fileID: 0}
    - target: {fileID: 3893294197879345259, guid: 64dce48905ffd9b4293e595fa6941544,
        type: 3}
      propertyPath: m_LocalEulerAnglesHint.y
      value: 0
      objectReference: {fileID: 0}
    - target: {fileID: 3893294197879345259, guid: 64dce48905ffd9b4293e595fa6941544,
        type: 3}
      propertyPath: m_LocalEulerAnglesHint.z
      value: 0
      objectReference: {fileID: 0}
    - target: {fileID: 4416926081852918481, guid: 64dce48905ffd9b4293e595fa6941544,
        type: 3}
      propertyPath: m_Name
      value: PlayerArmature
      objectReference: {fileID: 0}
    - target: {fileID: 4416926081852918490, guid: 64dce48905ffd9b4293e595fa6941544,
        type: 3}
      propertyPath: GroundLayers.m_Bits
      value: 1
      objectReference: {fileID: 0}
    - target: {fileID: 4416926081852918493, guid: 64dce48905ffd9b4293e595fa6941544,
        type: 3}
      propertyPath: m_ActionEvents.Array.data[0].m_PersistentCalls.m_Calls.Array.data[0].m_Target
      value: 
      objectReference: {fileID: 0}
    - target: {fileID: 4416926081852918493, guid: 64dce48905ffd9b4293e595fa6941544,
        type: 3}
      propertyPath: m_ActionEvents.Array.data[1].m_PersistentCalls.m_Calls.Array.data[0].m_Target
      value: 
      objectReference: {fileID: 0}
    - target: {fileID: 4416926081852918493, guid: 64dce48905ffd9b4293e595fa6941544,
        type: 3}
      propertyPath: m_ActionEvents.Array.data[2].m_PersistentCalls.m_Calls.Array.data[0].m_Target
      value: 
      objectReference: {fileID: 0}
    - target: {fileID: 4416926081852918493, guid: 64dce48905ffd9b4293e595fa6941544,
        type: 3}
      propertyPath: m_ActionEvents.Array.data[3].m_PersistentCalls.m_Calls.Array.data[0].m_Target
      value: 
      objectReference: {fileID: 0}
    m_RemovedComponents:
    - {fileID: 4416926081852918490, guid: 64dce48905ffd9b4293e595fa6941544, type: 3}
  m_SourcePrefab: {fileID: 100100000, guid: 64dce48905ffd9b4293e595fa6941544, type: 3}
--- !u!114 &1762682259 stripped
MonoBehaviour:
  m_CorrespondingSourceObject: {fileID: 135756642000475821, guid: 64dce48905ffd9b4293e595fa6941544,
    type: 3}
  m_PrefabInstance: {fileID: 1762682258}
  m_PrefabAsset: {fileID: 0}
  m_GameObject: {fileID: 1762682261}
  m_Enabled: 1
  m_EditorHideFlags: 0
  m_Script: {fileID: 11500000, guid: e087ecce43ebbff45a1b360637807d93, type: 3}
  m_Name: 
  m_EditorClassIdentifier: 
--- !u!114 &1762682260 stripped
MonoBehaviour:
  m_CorrespondingSourceObject: {fileID: 4416926081852918493, guid: 64dce48905ffd9b4293e595fa6941544,
    type: 3}
  m_PrefabInstance: {fileID: 1762682258}
  m_PrefabAsset: {fileID: 0}
  m_GameObject: {fileID: 1762682261}
  m_Enabled: 1
  m_EditorHideFlags: 0
  m_Script: {fileID: 11500000, guid: 62899f850307741f2a39c98a8b639597, type: 3}
  m_Name: 
  m_EditorClassIdentifier: 
--- !u!1 &1762682261 stripped
GameObject:
  m_CorrespondingSourceObject: {fileID: 4416926081852918481, guid: 64dce48905ffd9b4293e595fa6941544,
    type: 3}
  m_PrefabInstance: {fileID: 1762682258}
  m_PrefabAsset: {fileID: 0}
--- !u!114 &1762682262
MonoBehaviour:
  m_ObjectHideFlags: 0
  m_CorrespondingSourceObject: {fileID: 0}
  m_PrefabInstance: {fileID: 0}
  m_PrefabAsset: {fileID: 0}
  m_GameObject: {fileID: 1762682261}
  m_Enabled: 1
  m_EditorHideFlags: 0
  m_Script: {fileID: 11500000, guid: 8bf8ab650b4a50e448553427bc4ce287, type: 3}
  m_Name: 
  m_EditorClassIdentifier: 
  moveSpeed: 2
  sprintSpeed: 5.335
  rotationSmoothTime: 0.12
  speedChangeRate: 10
  jumpHeight: 1.2
  gravity: -15
  jumpTimeout: 0.5
  fallTimeout: 0.15
  groundedOffset: -0.14
  groundedRadius: 0.28
  groundLayers:
    serializedVersion: 2
    m_Bits: 0
  grounded: 1
  cinemachineCameraTarget: {fileID: 1457431235}
  topClamp: 70
  bottomClamp: -30
  cameraAngleOverride: 0
  lockCameraPosition: 0
--- !u!1 &1764214107
GameObject:
  m_ObjectHideFlags: 0
  m_CorrespondingSourceObject: {fileID: 0}
  m_PrefabInstance: {fileID: 0}
  m_PrefabAsset: {fileID: 0}
  serializedVersion: 6
  m_Component:
  - component: {fileID: 1764214108}
  - component: {fileID: 1764214109}
  m_Layer: 0
  m_Name: Reflection Probe
  m_TagString: Untagged
  m_Icon: {fileID: 0}
  m_NavMeshLayer: 0
  m_StaticEditorFlags: 0
  m_IsActive: 1
--- !u!4 &1764214108
Transform:
  m_ObjectHideFlags: 0
  m_CorrespondingSourceObject: {fileID: 0}
  m_PrefabInstance: {fileID: 0}
  m_PrefabAsset: {fileID: 0}
  m_GameObject: {fileID: 1764214107}
  m_LocalRotation: {x: -0, y: -0, z: -0, w: 1}
  m_LocalPosition: {x: 0.965, y: 1.566, z: 15.191}
  m_LocalScale: {x: 1, y: 1, z: 1}
  m_Children: []
  m_Father: {fileID: 2114283753834967213}
  m_RootOrder: 2
  m_LocalEulerAnglesHint: {x: 0, y: 0, z: 0}
--- !u!215 &1764214109
ReflectionProbe:
  m_ObjectHideFlags: 0
  m_CorrespondingSourceObject: {fileID: 0}
  m_PrefabInstance: {fileID: 0}
  m_PrefabAsset: {fileID: 0}
  m_GameObject: {fileID: 1764214107}
  m_Enabled: 1
  serializedVersion: 2
  m_Type: 0
  m_Mode: 0
  m_RefreshMode: 0
  m_TimeSlicingMode: 0
  m_Resolution: 128
  m_UpdateFrequency: 0
  m_BoxSize: {x: 8.880261, y: 3.6585498, z: 4.8670416}
  m_BoxOffset: {x: -0.11674833, y: 0.1915052, z: -0.35990858}
  m_NearClip: 0.3
  m_FarClip: 1000
  m_ShadowDistance: 100
  m_ClearFlags: 1
  m_BackGroundColor: {r: 0.19215687, g: 0.3019608, b: 0.4745098, a: 0}
  m_CullingMask:
    serializedVersion: 2
    m_Bits: 4294967295
  m_IntensityMultiplier: 1
  m_BlendDistance: 1
  m_HDR: 1
  m_BoxProjection: 0
  m_RenderDynamicObjects: 0
  m_UseOcclusionCulling: 1
  m_Importance: 1
  m_CustomBakedTexture: {fileID: 0}
--- !u!1001 &1979352518
PrefabInstance:
  m_ObjectHideFlags: 0
  serializedVersion: 2
  m_Modification:
    m_TransformParent: {fileID: 0}
    m_Modifications:
    - target: {fileID: 1663187150, guid: 2f7f3dde7ae722a4aafffe20691ad702, type: 3}
      propertyPath: starterAssetsInputs
      value: 
      objectReference: {fileID: 1762682259}
    - target: {fileID: 597308369130767402, guid: 2f7f3dde7ae722a4aafffe20691ad702,
        type: 3}
      propertyPath: m_Pivot.x
      value: 0
      objectReference: {fileID: 0}
    - target: {fileID: 597308369130767402, guid: 2f7f3dde7ae722a4aafffe20691ad702,
        type: 3}
      propertyPath: m_Pivot.y
      value: 0
      objectReference: {fileID: 0}
    - target: {fileID: 597308369130767402, guid: 2f7f3dde7ae722a4aafffe20691ad702,
        type: 3}
      propertyPath: m_RootOrder
      value: 5
      objectReference: {fileID: 0}
    - target: {fileID: 597308369130767402, guid: 2f7f3dde7ae722a4aafffe20691ad702,
        type: 3}
      propertyPath: m_AnchorMax.x
      value: 0
      objectReference: {fileID: 0}
    - target: {fileID: 597308369130767402, guid: 2f7f3dde7ae722a4aafffe20691ad702,
        type: 3}
      propertyPath: m_AnchorMax.y
      value: 0
      objectReference: {fileID: 0}
    - target: {fileID: 597308369130767402, guid: 2f7f3dde7ae722a4aafffe20691ad702,
        type: 3}
      propertyPath: m_AnchorMin.x
      value: 0
      objectReference: {fileID: 0}
    - target: {fileID: 597308369130767402, guid: 2f7f3dde7ae722a4aafffe20691ad702,
        type: 3}
      propertyPath: m_AnchorMin.y
      value: 0
      objectReference: {fileID: 0}
    - target: {fileID: 597308369130767402, guid: 2f7f3dde7ae722a4aafffe20691ad702,
        type: 3}
      propertyPath: m_SizeDelta.x
      value: 0
      objectReference: {fileID: 0}
    - target: {fileID: 597308369130767402, guid: 2f7f3dde7ae722a4aafffe20691ad702,
        type: 3}
      propertyPath: m_SizeDelta.y
      value: 0
      objectReference: {fileID: 0}
    - target: {fileID: 597308369130767402, guid: 2f7f3dde7ae722a4aafffe20691ad702,
        type: 3}
      propertyPath: m_LocalPosition.x
      value: 0
      objectReference: {fileID: 0}
    - target: {fileID: 597308369130767402, guid: 2f7f3dde7ae722a4aafffe20691ad702,
        type: 3}
      propertyPath: m_LocalPosition.y
      value: 0
      objectReference: {fileID: 0}
    - target: {fileID: 597308369130767402, guid: 2f7f3dde7ae722a4aafffe20691ad702,
        type: 3}
      propertyPath: m_LocalPosition.z
      value: 0
      objectReference: {fileID: 0}
    - target: {fileID: 597308369130767402, guid: 2f7f3dde7ae722a4aafffe20691ad702,
        type: 3}
      propertyPath: m_LocalRotation.w
      value: 1
      objectReference: {fileID: 0}
    - target: {fileID: 597308369130767402, guid: 2f7f3dde7ae722a4aafffe20691ad702,
        type: 3}
      propertyPath: m_LocalRotation.x
      value: 0
      objectReference: {fileID: 0}
    - target: {fileID: 597308369130767402, guid: 2f7f3dde7ae722a4aafffe20691ad702,
        type: 3}
      propertyPath: m_LocalRotation.y
      value: 0
      objectReference: {fileID: 0}
    - target: {fileID: 597308369130767402, guid: 2f7f3dde7ae722a4aafffe20691ad702,
        type: 3}
      propertyPath: m_LocalRotation.z
      value: 0
      objectReference: {fileID: 0}
    - target: {fileID: 597308369130767402, guid: 2f7f3dde7ae722a4aafffe20691ad702,
        type: 3}
      propertyPath: m_AnchoredPosition.x
      value: 0
      objectReference: {fileID: 0}
    - target: {fileID: 597308369130767402, guid: 2f7f3dde7ae722a4aafffe20691ad702,
        type: 3}
      propertyPath: m_AnchoredPosition.y
      value: 0
      objectReference: {fileID: 0}
    - target: {fileID: 597308369130767402, guid: 2f7f3dde7ae722a4aafffe20691ad702,
        type: 3}
      propertyPath: m_LocalEulerAnglesHint.x
      value: 0
      objectReference: {fileID: 0}
    - target: {fileID: 597308369130767402, guid: 2f7f3dde7ae722a4aafffe20691ad702,
        type: 3}
      propertyPath: m_LocalEulerAnglesHint.y
      value: 0
      objectReference: {fileID: 0}
    - target: {fileID: 597308369130767402, guid: 2f7f3dde7ae722a4aafffe20691ad702,
        type: 3}
      propertyPath: m_LocalEulerAnglesHint.z
      value: 0
      objectReference: {fileID: 0}
    - target: {fileID: 1557486221260924829, guid: 2f7f3dde7ae722a4aafffe20691ad702,
        type: 3}
      propertyPath: m_BlockingMask.m_Bits
      value: 55
      objectReference: {fileID: 0}
    - target: {fileID: 6751388636123340836, guid: 2f7f3dde7ae722a4aafffe20691ad702,
        type: 3}
      propertyPath: m_Name
      value: UI_Canvas_StarterAssetsInputs_Joysticks
      objectReference: {fileID: 0}
    - target: {fileID: 6751388636123340836, guid: 2f7f3dde7ae722a4aafffe20691ad702,
        type: 3}
      propertyPath: m_IsActive
      value: 0
      objectReference: {fileID: 0}
    - target: {fileID: 8890774966862588244, guid: 2f7f3dde7ae722a4aafffe20691ad702,
        type: 3}
      propertyPath: playerInput
      value: 
      objectReference: {fileID: 1762682260}
    m_RemovedComponents: []
  m_SourcePrefab: {fileID: 100100000, guid: 2f7f3dde7ae722a4aafffe20691ad702, type: 3}
--- !u!1 &2114283753834967212
GameObject:
  m_ObjectHideFlags: 0
  m_CorrespondingSourceObject: {fileID: 0}
  m_PrefabInstance: {fileID: 0}
  m_PrefabAsset: {fileID: 0}
  serializedVersion: 6
  m_Component:
  - component: {fileID: 2114283753834967213}
  m_Layer: 0
  m_Name: Lighting
  m_TagString: Untagged
  m_Icon: {fileID: 0}
  m_NavMeshLayer: 0
  m_StaticEditorFlags: 0
  m_IsActive: 1
--- !u!4 &2114283753834967213
Transform:
  m_ObjectHideFlags: 0
  m_CorrespondingSourceObject: {fileID: 0}
  m_PrefabInstance: {fileID: 0}
  m_PrefabAsset: {fileID: 0}
  m_GameObject: {fileID: 2114283753834967212}
  m_LocalRotation: {x: 0, y: 0, z: 0, w: 1}
  m_LocalPosition: {x: 0, y: 0, z: 0}
  m_LocalScale: {x: 1, y: 1, z: 1}
  m_Children:
  - {fileID: 2114283754330233426}
  - {fileID: 1028513133}
  - {fileID: 1764214108}
  - {fileID: 542508512}
  - {fileID: 874605736}
  m_Father: {fileID: 0}
  m_RootOrder: 0
  m_LocalEulerAnglesHint: {x: 0, y: 0, z: 0}
--- !u!1 &2114283754330233424
GameObject:
  m_ObjectHideFlags: 0
  m_CorrespondingSourceObject: {fileID: 0}
  m_PrefabInstance: {fileID: 0}
  m_PrefabAsset: {fileID: 0}
  serializedVersion: 6
  m_Component:
  - component: {fileID: 2114283754330233426}
  - component: {fileID: 2114283754330233425}
  m_Layer: 0
  m_Name: Directional Light
  m_TagString: Untagged
  m_Icon: {fileID: 0}
  m_NavMeshLayer: 0
  m_StaticEditorFlags: 0
  m_IsActive: 1
--- !u!108 &2114283754330233425
Light:
  m_ObjectHideFlags: 0
  m_CorrespondingSourceObject: {fileID: 0}
  m_PrefabInstance: {fileID: 0}
  m_PrefabAsset: {fileID: 0}
  m_GameObject: {fileID: 2114283754330233424}
  m_Enabled: 1
  serializedVersion: 10
  m_Type: 1
  m_Shape: 0
  m_Color: {r: 0.972549, g: 0.9607843, b: 0.8784314, a: 1}
  m_Intensity: 1
  m_Range: 10
  m_SpotAngle: 30
  m_InnerSpotAngle: 21.80208
  m_CookieSize: 10
  m_Shadows:
    m_Type: 2
    m_Resolution: 2
    m_CustomResolution: -1
    m_Strength: 1
    m_Bias: 0.125
    m_NormalBias: 0
    m_NearPlane: 0.2
    m_CullingMatrixOverride:
      e00: 1
      e01: 0
      e02: 0
      e03: 0
      e10: 0
      e11: 1
      e12: 0
      e13: 0
      e20: 0
      e21: 0
      e22: 1
      e23: 0
      e30: 0
      e31: 0
      e32: 0
      e33: 1
    m_UseCullingMatrixOverride: 0
  m_Cookie: {fileID: 0}
  m_DrawHalo: 0
  m_Flare: {fileID: 0}
  m_RenderMode: 0
  m_CullingMask:
    serializedVersion: 2
    m_Bits: 4294967295
  m_RenderingLayerMask: 1
  m_Lightmapping: 1
  m_LightShadowCasterMode: 0
  m_AreaSize: {x: 1, y: 1}
  m_BounceIntensity: 1
  m_ColorTemperature: 6570
  m_UseColorTemperature: 0
  m_BoundingSphereOverride: {x: 2.2e-44, y: 0, z: 0, w: 2.3164883}
  m_UseBoundingSphereOverride: 0
  m_UseViewFrustumForShadowCasterCull: 1
  m_ShadowRadius: 0
  m_ShadowAngle: 0
--- !u!4 &2114283754330233426
Transform:
  m_ObjectHideFlags: 0
  m_CorrespondingSourceObject: {fileID: 0}
  m_PrefabInstance: {fileID: 0}
  m_PrefabAsset: {fileID: 0}
  m_GameObject: {fileID: 2114283754330233424}
  m_LocalRotation: {x: 0.40821788, y: -0.23456968, z: 0.10938163, w: 0.8754261}
  m_LocalPosition: {x: 39.455, y: 0, z: 7.815}
  m_LocalScale: {x: 1, y: 1, z: 1}
  m_Children: []
  m_Father: {fileID: 2114283753834967213}
  m_RootOrder: 0
  m_LocalEulerAnglesHint: {x: 50, y: -30, z: 0}
--- !u!1001 &8345070700268369567
PrefabInstance:
  m_ObjectHideFlags: 0
  serializedVersion: 2
  m_Modification:
    m_TransformParent: {fileID: 0}
    m_Modifications:
    - target: {fileID: 1678179932331761816, guid: 09aade0ecefd01e4b8f7661acf64f5c2,
        type: 3}
      propertyPath: m_Materials.Array.data[0]
      value: 
      objectReference: {fileID: 2100000, guid: 7ab977a21c92388468ee65ad1c0e5a78, type: 2}
    - target: {fileID: 2055894051710730007, guid: 09aade0ecefd01e4b8f7661acf64f5c2,
        type: 3}
      propertyPath: m_Materials.Array.data[0]
      value: 
      objectReference: {fileID: 2100000, guid: 7ab977a21c92388468ee65ad1c0e5a78, type: 2}
    - target: {fileID: 2188624860443206089, guid: 09aade0ecefd01e4b8f7661acf64f5c2,
        type: 3}
      propertyPath: m_Materials.Array.data[0]
      value: 
      objectReference: {fileID: 2100000, guid: 7ab977a21c92388468ee65ad1c0e5a78, type: 2}
    - target: {fileID: 2267305922763786408, guid: 09aade0ecefd01e4b8f7661acf64f5c2,
        type: 3}
      propertyPath: m_Materials.Array.data[0]
      value: 
      objectReference: {fileID: 2100000, guid: 7ab977a21c92388468ee65ad1c0e5a78, type: 2}
    - target: {fileID: 2742374090662089873, guid: 09aade0ecefd01e4b8f7661acf64f5c2,
        type: 3}
      propertyPath: m_Name
      value: Box_350x250x200_Prefab
      objectReference: {fileID: 0}
    - target: {fileID: 2851502387910328280, guid: 09aade0ecefd01e4b8f7661acf64f5c2,
        type: 3}
      propertyPath: m_Materials.Array.data[0]
      value: 
      objectReference: {fileID: 2100000, guid: 7ab977a21c92388468ee65ad1c0e5a78, type: 2}
    - target: {fileID: 3362877509795758829, guid: 09aade0ecefd01e4b8f7661acf64f5c2,
        type: 3}
      propertyPath: m_Materials.Array.data[0]
      value: 
      objectReference: {fileID: 2100000, guid: 7ab977a21c92388468ee65ad1c0e5a78, type: 2}
    - target: {fileID: 3814548966972071594, guid: 09aade0ecefd01e4b8f7661acf64f5c2,
        type: 3}
      propertyPath: m_Materials.Array.data[0]
      value: 
      objectReference: {fileID: 2100000, guid: 7ab977a21c92388468ee65ad1c0e5a78, type: 2}
    - target: {fileID: 3983598328739993525, guid: 09aade0ecefd01e4b8f7661acf64f5c2,
        type: 3}
      propertyPath: m_Materials.Array.data[0]
      value: 
      objectReference: {fileID: 2100000, guid: 7ab977a21c92388468ee65ad1c0e5a78, type: 2}
    - target: {fileID: 4024457254690178231, guid: 09aade0ecefd01e4b8f7661acf64f5c2,
        type: 3}
      propertyPath: m_LocalRotation.w
      value: 0.6637226
      objectReference: {fileID: 0}
    - target: {fileID: 4024457254690178231, guid: 09aade0ecefd01e4b8f7661acf64f5c2,
        type: 3}
      propertyPath: m_LocalRotation.x
      value: -0.6637226
      objectReference: {fileID: 0}
    - target: {fileID: 4024457254690178231, guid: 09aade0ecefd01e4b8f7661acf64f5c2,
        type: 3}
      propertyPath: m_LocalRotation.y
      value: -0.2438697
      objectReference: {fileID: 0}
    - target: {fileID: 4024457254690178231, guid: 09aade0ecefd01e4b8f7661acf64f5c2,
        type: 3}
      propertyPath: m_LocalRotation.z
      value: -0.2438697
      objectReference: {fileID: 0}
    - target: {fileID: 4024457254690178231, guid: 09aade0ecefd01e4b8f7661acf64f5c2,
        type: 3}
      propertyPath: m_LocalEulerAnglesHint.x
      value: -90
      objectReference: {fileID: 0}
    - target: {fileID: 4024457254690178231, guid: 09aade0ecefd01e4b8f7661acf64f5c2,
        type: 3}
      propertyPath: m_LocalEulerAnglesHint.z
      value: -40.349
      objectReference: {fileID: 0}
    - target: {fileID: 4341615185304014817, guid: 09aade0ecefd01e4b8f7661acf64f5c2,
        type: 3}
      propertyPath: m_Materials.Array.data[0]
      value: 
      objectReference: {fileID: 2100000, guid: 7ab977a21c92388468ee65ad1c0e5a78, type: 2}
    - target: {fileID: 4364672074426162701, guid: 09aade0ecefd01e4b8f7661acf64f5c2,
        type: 3}
      propertyPath: m_Name
      value: Box_350x250x200_Prefab
      objectReference: {fileID: 0}
    - target: {fileID: 4670052200047188738, guid: 09aade0ecefd01e4b8f7661acf64f5c2,
        type: 3}
      propertyPath: m_Materials.Array.data[0]
      value: 
      objectReference: {fileID: 2100000, guid: 7ab977a21c92388468ee65ad1c0e5a78, type: 2}
    - target: {fileID: 5043663941078610840, guid: 09aade0ecefd01e4b8f7661acf64f5c2,
        type: 3}
      propertyPath: m_Name
      value: Box_350x250x300_Prefab
      objectReference: {fileID: 0}
    - target: {fileID: 6056394991271758435, guid: 09aade0ecefd01e4b8f7661acf64f5c2,
        type: 3}
      propertyPath: m_Materials.Array.data[0]
      value: 
      objectReference: {fileID: 2100000, guid: 7ab977a21c92388468ee65ad1c0e5a78, type: 2}
    - target: {fileID: 6448643974395219577, guid: 09aade0ecefd01e4b8f7661acf64f5c2,
        type: 3}
      propertyPath: m_Materials.Array.data[0]
      value: 
      objectReference: {fileID: 2100000, guid: 7ab977a21c92388468ee65ad1c0e5a78, type: 2}
    - target: {fileID: 6645204521410384571, guid: 09aade0ecefd01e4b8f7661acf64f5c2,
        type: 3}
      propertyPath: m_Materials.Array.data[0]
      value: 
      objectReference: {fileID: 2100000, guid: 7ab977a21c92388468ee65ad1c0e5a78, type: 2}
    - target: {fileID: 6658370631066563872, guid: 09aade0ecefd01e4b8f7661acf64f5c2,
        type: 3}
      propertyPath: m_Materials.Array.data[0]
      value: 
      objectReference: {fileID: 2100000, guid: 7ab977a21c92388468ee65ad1c0e5a78, type: 2}
    - target: {fileID: 7868691500460860468, guid: 09aade0ecefd01e4b8f7661acf64f5c2,
        type: 3}
      propertyPath: m_Materials.Array.data[0]
      value: 
      objectReference: {fileID: 2100000, guid: 7ab977a21c92388468ee65ad1c0e5a78, type: 2}
    - target: {fileID: 8268551067277165611, guid: 09aade0ecefd01e4b8f7661acf64f5c2,
        type: 3}
      propertyPath: m_Materials.Array.data[0]
      value: 
      objectReference: {fileID: 2100000, guid: 7ab977a21c92388468ee65ad1c0e5a78, type: 2}
    - target: {fileID: 8345070699079395522, guid: 09aade0ecefd01e4b8f7661acf64f5c2,
        type: 3}
      propertyPath: m_RootOrder
      value: 1
      objectReference: {fileID: 0}
    - target: {fileID: 8345070699079395522, guid: 09aade0ecefd01e4b8f7661acf64f5c2,
        type: 3}
      propertyPath: m_LocalPosition.x
      value: 0
      objectReference: {fileID: 0}
    - target: {fileID: 8345070699079395522, guid: 09aade0ecefd01e4b8f7661acf64f5c2,
        type: 3}
      propertyPath: m_LocalPosition.y
      value: 0
      objectReference: {fileID: 0}
    - target: {fileID: 8345070699079395522, guid: 09aade0ecefd01e4b8f7661acf64f5c2,
        type: 3}
      propertyPath: m_LocalPosition.z
      value: 0
      objectReference: {fileID: 0}
    - target: {fileID: 8345070699079395522, guid: 09aade0ecefd01e4b8f7661acf64f5c2,
        type: 3}
      propertyPath: m_LocalRotation.w
      value: 1
      objectReference: {fileID: 0}
    - target: {fileID: 8345070699079395522, guid: 09aade0ecefd01e4b8f7661acf64f5c2,
        type: 3}
      propertyPath: m_LocalRotation.x
      value: 0
      objectReference: {fileID: 0}
    - target: {fileID: 8345070699079395522, guid: 09aade0ecefd01e4b8f7661acf64f5c2,
        type: 3}
      propertyPath: m_LocalRotation.y
      value: 0
      objectReference: {fileID: 0}
    - target: {fileID: 8345070699079395522, guid: 09aade0ecefd01e4b8f7661acf64f5c2,
        type: 3}
      propertyPath: m_LocalRotation.z
      value: 0
      objectReference: {fileID: 0}
    - target: {fileID: 8345070699079395522, guid: 09aade0ecefd01e4b8f7661acf64f5c2,
        type: 3}
      propertyPath: m_LocalEulerAnglesHint.x
      value: 0
      objectReference: {fileID: 0}
    - target: {fileID: 8345070699079395522, guid: 09aade0ecefd01e4b8f7661acf64f5c2,
        type: 3}
      propertyPath: m_LocalEulerAnglesHint.y
      value: 0
      objectReference: {fileID: 0}
    - target: {fileID: 8345070699079395522, guid: 09aade0ecefd01e4b8f7661acf64f5c2,
        type: 3}
      propertyPath: m_LocalEulerAnglesHint.z
      value: 0
      objectReference: {fileID: 0}
    - target: {fileID: 8345070699079395523, guid: 09aade0ecefd01e4b8f7661acf64f5c2,
        type: 3}
      propertyPath: m_Name
      value: Environment
      objectReference: {fileID: 0}
    - target: {fileID: 8680289381081499115, guid: 09aade0ecefd01e4b8f7661acf64f5c2,
        type: 3}
      propertyPath: m_Materials.Array.data[0]
      value: 
      objectReference: {fileID: 2100000, guid: 7ab977a21c92388468ee65ad1c0e5a78, type: 2}
    m_RemovedComponents: []
  m_SourcePrefab: {fileID: 100100000, guid: 09aade0ecefd01e4b8f7661acf64f5c2, type: 3}
